{"Time":"2021-11-05T17:15:20.4538487+02:00","Action":"run","Package":"private-dev","Test":"TestHello"}
{"Time":"2021-11-05T17:15:20.4548103+02:00","Action":"output","Package":"private-dev","Test":"TestHello","Output":"=== RUN   TestHello\n"}
{"Time":"2021-11-05T17:15:20.4548103+02:00","Action":"output","Package":"private-dev","Test":"TestHello","Output":"--- PASS: TestHello (0.00s)\n"}
{"Time":"2021-11-05T17:15:20.4548103+02:00","Action":"pass","Package":"private-dev","Test":"TestHello","Elapsed":0}
{"Time":"2021-11-05T17:15:20.4548103+02:00","Action":"output","Package":"private-dev","Output":"PASS\n"}
{"Time":"2021-11-05T17:15:20.460841+02:00","Action":"output","Package":"private-dev","Output":"ok  \tprivate-dev\t0.476s\n"}
{"Time":"2021-11-05T17:15:20.4728098+02:00","Action":"pass","Package":"private-dev","Elapsed":0.489}
